<?xml version="1.0" encoding="UTF-8" standalone="no"?>
<!DOCTYPE svg PUBLIC "-//W3C//DTD SVG 1.1//EN"
 "http://www.w3.org/Graphics/SVG/1.1/DTD/svg11.dtd">
<!-- Generated by graphviz version 2.40.1 (20161225.0304)
 -->
<!-- Title: %3 Pages: 1 -->
<svg width="1354pt" height="332pt"
 viewBox="0.00 0.00 1354.06 332.00" xmlns="http://www.w3.org/2000/svg" xmlns:xlink="http://www.w3.org/1999/xlink">
<g id="graph0" class="graph" transform="scale(1 1) rotate(0) translate(4 328)">
<title>%3</title>
<polygon fill="#ffffff" stroke="transparent" points="-4,4 -4,-328 1350.0616,-328 1350.0616,4 -4,4"/>
<!-- [root] docker_container.nginx&#45;server (expand) -->
<g id="node1" class="node">
<title>[root] docker_container.nginx&#45;server (expand)</title>
<polygon fill="none" stroke="#000000" points="860.3246,-180 625.3246,-180 625.3246,-144 860.3246,-144 860.3246,-180"/>
<text text-anchor="middle" x="742.8246" y="-158.3" font-family="Times,serif" font-size="14.00" fill="#000000">docker_container.nginx&#45;server</text>
</g>
<!-- [root] docker_image.nginx (expand) -->
<g id="node2" class="node">
<title>[root] docker_image.nginx (expand)</title>
<polygon fill="none" stroke="#000000" points="446.3246,-108 285.3246,-108 285.3246,-72 446.3246,-72 446.3246,-108"/>
<text text-anchor="middle" x="365.8246" y="-86.3" font-family="Times,serif" font-size="14.00" fill="#000000">docker_image.nginx</text>
</g>
<!-- [root] docker_container.nginx&#45;server (expand)&#45;&gt;[root] docker_image.nginx (expand) -->
<g id="edge1" class="edge">
<title>[root] docker_container.nginx&#45;server (expand)&#45;&gt;[root] docker_image.nginx (expand)</title>
<path fill="none" stroke="#000000" d="M644.7834,-143.9743C591.6638,-134.1226 524.6172,-121.5515 456.4142,-108.2984"/>
<polygon fill="#000000" stroke="#000000" points="456.8292,-104.8135 446.3446,-106.3383 455.4916,-111.6845 456.8292,-104.8135"/>
</g>
<!-- [root] local.ports (expand) -->
<g id="node4" class="node">
<title>[root] local.ports (expand)</title>
<ellipse fill="none" stroke="#000000" cx="595.8246" cy="-90" rx="131.8766" ry="18"/>
<text text-anchor="middle" x="595.8246" y="-86.3" font-family="Times,serif" font-size="14.00" fill="#000000">[root] local.ports (expand)</text>
</g>
<!-- [root] docker_container.nginx&#45;server (expand)&#45;&gt;[root] local.ports (expand) -->
<g id="edge2" class="edge">
<title>[root] docker_container.nginx&#45;server (expand)&#45;&gt;[root] local.ports (expand)</title>
<path fill="none" stroke="#000000" d="M705.7303,-143.8314C685.8742,-134.1059 661.2758,-122.0577 640.3877,-111.8269"/>
<polygon fill="#000000" stroke="#000000" points="641.9059,-108.6732 631.3858,-107.4177 638.8268,-114.9597 641.9059,-108.6732"/>
</g>
<!-- [root] local.replicas (expand) -->
<g id="node5" class="node">
<title>[root] local.replicas (expand)</title>
<ellipse fill="none" stroke="#000000" cx="890.8246" cy="-90" rx="144.8743" ry="18"/>
<text text-anchor="middle" x="890.8246" y="-86.3" font-family="Times,serif" font-size="14.00" fill="#000000">[root] local.replicas (expand)</text>
</g>
<!-- [root] docker_container.nginx&#45;server (expand)&#45;&gt;[root] local.replicas (expand) -->
<g id="edge3" class="edge">
<title>[root] docker_container.nginx&#45;server (expand)&#45;&gt;[root] local.replicas (expand)</title>
<path fill="none" stroke="#000000" d="M780.1712,-143.8314C800.0878,-134.1422 824.7434,-122.1476 845.7227,-111.9415"/>
<polygon fill="#000000" stroke="#000000" points="847.3064,-115.0633 854.7676,-107.5412 844.2441,-108.7686 847.3064,-115.0633"/>
</g>
<!-- [root] local.volumes (expand) -->
<g id="node6" class="node">
<title>[root] local.volumes (expand)</title>
<ellipse fill="none" stroke="#000000" cx="1199.8246" cy="-90" rx="146.4744" ry="18"/>
<text text-anchor="middle" x="1199.8246" y="-86.3" font-family="Times,serif" font-size="14.00" fill="#000000">[root] local.volumes (expand)</text>
</g>
<!-- [root] docker_container.nginx&#45;server (expand)&#45;&gt;[root] local.volumes (expand) -->
<g id="edge4" class="edge">
<title>[root] docker_container.nginx&#45;server (expand)&#45;&gt;[root] local.volumes (expand)</title>
<path fill="none" stroke="#000000" d="M857.2605,-143.9707C931.8774,-132.2149 1028.32,-117.0204 1099.8546,-105.7502"/>
<polygon fill="#000000" stroke="#000000" points="1100.4448,-109.2005 1109.7783,-104.1867 1099.3554,-102.2858 1100.4448,-109.2005"/>
</g>
<!-- [root] provider[&quot;registry.terraform.io/kreuzwerker/docker&quot;] -->
<g id="node3" class="node">
<title>[root] provider[&quot;registry.terraform.io/kreuzwerker/docker&quot;]</title>
<polygon fill="none" stroke="#000000" points="365.8246,-36 .1753,-18 365.8246,0 731.4739,-18 365.8246,-36"/>
<text text-anchor="middle" x="365.8246" y="-14.3" font-family="Times,serif" font-size="14.00" fill="#000000">provider[&quot;registry.terraform.io/kreuzwerker/docker&quot;]</text>
</g>
<!-- [root] docker_image.nginx (expand)&#45;&gt;[root] provider[&quot;registry.terraform.io/kreuzwerker/docker&quot;] -->
<g id="edge5" class="edge">
<title>[root] docker_image.nginx (expand)&#45;&gt;[root] provider[&quot;registry.terraform.io/kreuzwerker/docker&quot;]</title>
<path fill="none" stroke="#000000" d="M365.8246,-71.8314C365.8246,-64.131 365.8246,-54.9743 365.8246,-46.4166"/>
<polygon fill="#000000" stroke="#000000" points="369.3247,-46.4132 365.8246,-36.4133 362.3247,-46.4133 369.3247,-46.4132"/>
</g>
<!-- [root] meta.count&#45;boundary (EachMode fixup) -->
<g id="node7" class="node">
<title>[root] meta.count&#45;boundary (EachMode fixup)</title>
<ellipse fill="none" stroke="#000000" cx="461.8246" cy="-234" rx="224.4604" ry="18"/>
<text text-anchor="middle" x="461.8246" y="-230.3" font-family="Times,serif" font-size="14.00" fill="#000000">[root] meta.count&#45;boundary (EachMode fixup)</text>
</g>
<!-- [root] meta.count&#45;boundary (EachMode fixup)&#45;&gt;[root] docker_container.nginx&#45;server (expand) -->
<g id="edge6" class="edge">
<title>[root] meta.count&#45;boundary (EachMode fixup)&#45;&gt;[root] docker_container.nginx&#45;server (expand)</title>
<path fill="none" stroke="#000000" d="M529.1311,-216.7542C569.115,-206.5092 620.0712,-193.4528 662.1954,-182.6594"/>
<polygon fill="#000000" stroke="#000000" points="663.3277,-185.9825 672.146,-180.1098 661.5902,-179.2015 663.3277,-185.9825"/>
</g>
<!-- [root] provider[&quot;registry.terraform.io/kreuzwerker/docker&quot;] (close) -->
<g id="node8" class="node">
<title>[root] provider[&quot;registry.terraform.io/kreuzwerker/docker&quot;] (close)</title>
<ellipse fill="none" stroke="#000000" cx="1024.8246" cy="-234" rx="321.143" ry="18"/>
<text text-anchor="middle" x="1024.8246" y="-230.3" font-family="Times,serif" font-size="14.00" fill="#000000">[root] provider[&quot;registry.terraform.io/kreuzwerker/docker&quot;] (close)</text>
</g>
<!-- [root] provider[&quot;registry.terraform.io/kreuzwerker/docker&quot;] (close)&#45;&gt;[root] docker_container.nginx&#45;server (expand) -->
<g id="edge7" class="edge">
<title>[root] provider[&quot;registry.terraform.io/kreuzwerker/docker&quot;] (close)&#45;&gt;[root] docker_container.nginx&#45;server (expand)</title>
<path fill="none" stroke="#000000" d="M955.8396,-216.3868C915.8363,-206.1732 865.2614,-193.2605 823.4307,-182.5803"/>
<polygon fill="#000000" stroke="#000000" points="824.1037,-179.1399 813.5487,-180.0572 822.372,-185.9223 824.1037,-179.1399"/>
</g>
<!-- [root] root -->
<g id="node9" class="node">
<title>[root] root</title>
<ellipse fill="none" stroke="#000000" cx="742.8246" cy="-306" rx="58.4896" ry="18"/>
<text text-anchor="middle" x="742.8246" y="-302.3" font-family="Times,serif" font-size="14.00" fill="#000000">[root] root</text>
</g>
<!-- [root] root&#45;&gt;[root] meta.count&#45;boundary (EachMode fixup) -->
<g id="edge8" class="edge">
<title>[root] root&#45;&gt;[root] meta.count&#45;boundary (EachMode fixup)</title>
<path fill="none" stroke="#000000" d="M697.6771,-294.432C654.9163,-283.4755 589.8445,-266.8023 538.8751,-253.7425"/>
<polygon fill="#000000" stroke="#000000" points="539.4358,-250.2732 528.88,-251.1815 537.6983,-257.0541 539.4358,-250.2732"/>
</g>
<!-- [root] root&#45;&gt;[root] provider[&quot;registry.terraform.io/kreuzwerker/docker&quot;] (close) -->
<g id="edge9" class="edge">
<title>[root] root&#45;&gt;[root] provider[&quot;registry.terraform.io/kreuzwerker/docker&quot;] (close)</title>
<path fill="none" stroke="#000000" d="M788.1328,-294.432C830.6078,-283.5873 895.0187,-267.1419 945.9297,-254.1434"/>
<polygon fill="#000000" stroke="#000000" points="947.0981,-257.4574 955.9214,-251.5923 945.3663,-250.675 947.0981,-257.4574"/>
</g>
</g>
</svg>
